{
  "name": "edgester-kerberos",
  "version": "0.2.0",
  "author": "edgester",
  "summary": "Manage MIT Kerberos",
  "license": "BSD",
  "source": "https://github.com/edgester/puppet-module-kerberos.git",
  "project_page": "https://github.com/edgester/puppet-module-kerberos",
  "issues_url": "https://github.com/edgester/puppet-module-kerberos/issues",
  "dependencies": [
    {"name":"puppetlabs-stdlib","version_requirement":">= 1.0.0"}
  ]
}
